{
  "version": 1,
  "serviceConfiguration": {
    "serviceName": "AppSync",
    "defaultAuthType": {
      "mode": "AMAZON_COGNITO_USER_POOLS",
      "cognitoUserPoolId": "authFolioMagiAuth"
    },
    "conflictResolution": {
      "defaultResolutionStrategy": {
        "type": "OPTIMISTIC_CONCURRENCY"
      }
    },
    "apiName": "FolioMagiApi",
    "additionalAuthTypes": []
  }
}